<?xml version="1.0" encoding="UTF-8"?>
<svg width="2340px" height="830px" viewBox="0 0 2340 830" version="1.1" xmlns="http://www.w3.org/2000/svg" xmlns:xlink="http://www.w3.org/1999/xlink">
    <!-- Generator: Sketch 49.3 (51167) - http://www.bohemiancoding.com/sketch -->
    <title>X</title>
    <desc>Created with Sketch.</desc>
    <defs></defs>
    <g id="X" stroke="none" stroke-width="1" fill="none" fill-rule="evenodd">
        <path d="M1278.73036,157.902278 C1293.74932,125.501465 1310.00884,85.0293924 1310.00884,68.8372556 C1310.00884,42.5064265 1292.49223,32.400813 1255.01098,32.400813 L1228.76087,32.400813 L1228.76087,0 L1460,0 L1460,32.400813 L1422.48567,32.400813 C1373.7402,32.400813 1352.50192,58.7151027 1318.74234,127.535819 L1227.48724,315.804555 L1158.74405,467.62031 L1067.50549,661.95903 C1047.49123,704.481996 1037.4841,742.952793 1037.4841,765.214913 C1037.4841,783.424865 1043.73649,797.615726 1067.50549,797.615726 L1123.72736,797.615726 L1123.72736,830 L880,830 L880,797.615726 L911.228861,797.615726 C973.736204,797.615726 996.248111,759.12839 1047.49123,651.853416 L1148.73692,439.304745 L1217.49665,289.490266 L1278.73036,157.902278 Z" id="Fill-2" fill="#2A54A1"></path>
        <rect id="Rectangle" fill="#2A54A1" x="1515" y="0" width="825" height="32"></rect>
        <rect id="Rectangle-Copy" fill="#2A54A1" x="0" y="798" width="825" height="32"></rect>
    </g>
</svg>