<svg width="194px" height="194px" viewBox="0 0 194 194" version="1.1" xmlns="http://www.w3.org/2000/svg" xmlns:xlink="http://www.w3.org/1999/xlink" preserveAspectRatio="xMidYMid meet">
    <defs></defs>
    <g id="Page-1" stroke="none" stroke-width="1" fill="none" fill-rule="evenodd">
        <g id="share" fill="#E4022E" fill-rule="nonzero">
            <path d="M69.9968514,0 L48.5068514,4.75 L45.8468514,27.12 C18.7768514,46.85 7.69685141,86.17 19.9968514,125.56 C20.5213176,127.527004 22.5159765,128.719367 24.4968514,128.25 L24.7168514,128.17 C26.4885292,127.455376 27.3736155,125.463932 26.7168514,123.67 C15.6268514,88 25.3368514,52.29 49.5168514,33.79 L64.5868514,49 L85.3968514,43.08 L87.8968514,19.08 L69.9968514,0 Z M79.9968514,37.54 L65.4068514,41.54 L52.2868514,28.15 L54.2868514,10.74 L69.2168514,7.3 L81.7968514,20.65 L79.9968514,37.54 Z M166.696851,96.36 C165.765892,90.7284862 164.384798,85.1807026 162.566851,79.77 C153.326851,52.38 133.876851,30.18 109.456851,20.22 C108.772318,19.8982893 107.970804,19.9489983 107.332273,20.3544147 C106.693743,20.759831 106.306894,21.4636377 106.306851,22.22 C106.103523,23.996229 107.068957,25.7008853 108.696851,26.44 C131.346851,35.44 149.476851,55.99 158.096851,81.44 C159.545315,85.7251895 160.694741,90.1057062 161.536851,94.55 L147.306851,99 L144.376851,121.72 L158.996851,138.15 L175.686851,131.78 L178.236851,109.93 L166.696851,96.36 Z M171.466851,127 L159.766851,131.36 L149.666851,120 L151.666851,104.21 L163.576851,100.3 L173.276851,111.72 L171.466851,127 Z M150.606851,163.27 C150.209129,162.666762 149.544843,162.292417 148.822827,162.264647 C148.10081,162.236877 147.409734,162.559093 146.966851,163.13 C141.4682,170.09901 134.512484,175.781673 126.586851,179.78 C110.746851,187.71 91.8968514,187.9 74.1468514,179.97 L77.3568514,158.81 L59.3568514,140.81 L36.1268514,148.6 L31.6268514,175.69 L50.9368514,193.69 L70.3268514,186 C90.1268514,195.24 111.236851,195.06 128.836851,186.06 C137.364695,181.657819 144.833776,175.454626 150.726851,167.88 C151.710105,166.500252 151.66116,164.636246 150.606851,163.31 L150.606851,163.27 Z M38.8968514,173 L41.9968514,154.26 L58.1268514,148.68 L70.8368514,161.27 L67.9968514,179.45 L52.1868514,185.64 L38.8968514,173 Z" id="share-shape"></path>
        </g>
    </g>
</svg>