<?xml version="1.0" encoding="UTF-8"?>
<svg width="250px" height="250px" viewBox="0 0 250 250" version="1.1" xmlns="http://www.w3.org/2000/svg" xmlns:xlink="http://www.w3.org/1999/xlink" style="background: #FFFFFF;">
    <!-- Generator: Sketch 48.2 (47327) - http://www.bohemiancoding.com/sketch -->
    <title>Today</title>
    <desc>Created with Sketch.</desc>
    <defs></defs>
    <g id="Page-1" stroke="none" stroke-width="1" fill="none" fill-rule="evenodd">
        <g id="Today">
            <g id="Group" transform="translate(8.000000, 44.000000)">
                <path d="M2.52242152,0.5 L234.479932,0.5" id="Line" stroke-opacity="0.202105978" stroke="#979797" stroke-linecap="square"></path>
                <path d="M2.52242152,108.5 L234.479932,108.5" id="Line-Copy-2" stroke-opacity="0.202105978" stroke="#979797" stroke-linecap="square"></path>
                <path d="M2.52242152,54.5 L234.479932,54.5" id="Line-Copy" stroke-opacity="0.202105978" stroke="#979797" stroke-linecap="square"></path>
                <path d="M2.52242152,162.5 L234.479932,162.5" id="Line-Copy-3" stroke-opacity="0.202105978" stroke="#979797" stroke-linecap="square"></path>
                <text id="RICAVI" font-family="Muli-Bold, Muli" font-size="20" font-weight="bold" fill="#4A4A4A">
                    <tspan x="1" y="35">RICAVI</tspan>
                </text>
                <text id="COSTI" font-family="Muli-Bold, Muli" font-size="20" font-weight="bold" fill="#4A4A4A">
                    <tspan x="0" y="89">COSTI</tspan>
                </text>
                <text id="UTILE" font-family="Muli-Bold, Muli" font-size="20" font-weight="bold" fill="#4A4A4A">
                    <tspan x="1" y="144">UTILE</tspan>
                </text>
            </g>
            <path d="M126.5,72.5 L179,72.5" id="Line-2" stroke="#DCDCDC" stroke-width="5" stroke-linecap="square"></path>
            <path d="M126.5,124.5 L179,124.5" id="Line-2-Copy" stroke="#DCDCDC" stroke-width="5" stroke-linecap="square"></path>
            <path d="M126.5,176.5 L179,176.5" id="Line-2-Copy-2" stroke="#DCDCDC" stroke-width="5" stroke-linecap="square"></path>
        </g>
    </g>
</svg>